<svg width="220" height="41" viewBox="0 0 220 41" fill="none" xmlns="http://www.w3.org/2000/svg">
<g clip-path="url(#clip0_711_2421)">
<path fill-rule="evenodd" clip-rule="evenodd" d="M51.3837 30.5488L51.9717 35.4599L42.3915 30.9607L32.8111 35.4599L33.4085 30.5488H30.4397L28.9126 40.9647L42.3915 34.3975L55.8704 40.9647L54.3434 30.5488H51.3837Z" fill="white"/>
<path fill-rule="evenodd" clip-rule="evenodd" d="M1.2331 20.5056L0 29.8971H2.49482L2.64654 28.2121H3.50958L3.63287 29.8971H6.10887L4.72405 20.5056H1.2331ZM2.60851 26.5367C2.67496 25.7136 2.82667 24.3925 3.07326 22.5926C3.19655 24.1626 3.32003 25.4743 3.44332 26.5465L2.60851 26.5367ZM18.8478 20.5056L17.8707 22.3821H16.4384V29.8971H14.0195V25.838H15.9263C16.0117 25.838 16.078 25.7612 16.078 25.675V25.1869C16.078 25.1007 16.0117 25.0241 15.9263 25.0241H14.0195V24.871H15.9263C16.0117 24.871 16.078 24.7942 16.078 24.7081V24.2197C16.078 24.1335 16.0117 24.0571 15.9263 24.0571H14.0195V23.8941H15.9263C16.0117 23.8941 16.078 23.8273 16.078 23.7313V23.2527C16.078 23.1571 16.0117 23.0899 15.9263 23.0899H14.0195V22.3815H12.5874L11.6103 20.505H18.8478V20.5056ZM10.6996 24.8232C11.2024 24.7085 11.5437 24.5361 11.7146 24.3254C11.8759 24.1054 11.9614 23.7225 11.9614 23.1765C11.9614 22.3629 11.8473 21.7692 11.6007 21.4053C11.3637 21.0416 11.0413 20.8022 10.6522 20.6776C10.2633 20.5628 9.68451 20.5052 8.92575 20.5052H6.51639V29.8968H9.30523C10.2823 29.8968 10.918 29.8394 11.2402 29.7243C11.5533 29.6191 11.781 29.4085 11.9233 29.1022C12.0656 28.7956 12.1321 28.3266 12.1321 27.6948V26.814C12.1321 26.2111 12.037 25.7514 11.8381 25.4546C11.6387 25.1577 11.2593 24.947 10.6996 24.8227V24.8232ZM9.72253 27.4177C9.72253 27.7911 9.6751 28.0303 9.58023 28.1261C9.48555 28.2219 9.2672 28.2793 8.92575 28.2891V25.6563C9.28621 25.6754 9.51378 25.7233 9.59924 25.8095C9.6751 25.8861 9.72253 26.1349 9.72253 26.5371V27.4179V27.4177ZM9.62786 24.0192C9.56122 24.1339 9.4095 24.1914 9.17252 24.1914C9.11549 24.1914 9.03022 24.1914 8.92575 24.2012V22.1046C9.18193 22.114 9.34325 22.1335 9.42852 22.1619C9.51378 22.1908 9.58983 22.2672 9.63727 22.3823C9.69411 22.5066 9.72253 22.7075 9.72253 23.0045C9.72253 23.5596 9.68451 23.8947 9.62786 24.0192ZM23.8753 22.363C23.8279 21.9801 23.6761 21.6162 23.4388 21.2908C23.2018 20.9652 22.8792 20.7161 22.4809 20.5535C22.092 20.3811 21.6461 20.3047 21.1433 20.3047C20.6217 20.3047 20.157 20.3909 19.7679 20.563C19.3696 20.7354 19.066 20.9844 18.8288 21.3096C18.6012 21.635 18.4589 21.9989 18.4211 22.3913C18.3735 22.7837 18.3545 23.4542 18.3545 24.3923V26.0006C18.3545 26.9676 18.3735 27.6471 18.4211 28.0397C18.4685 28.4227 18.6108 28.7768 18.8478 29.112C19.0946 29.4376 19.4076 29.6866 19.8059 29.849C20.2042 30.0118 20.6499 30.0979 21.1433 30.0979C21.6651 30.0979 22.1298 30.0117 22.5187 29.83C22.9172 29.6576 23.2302 29.4087 23.4578 29.0833C23.695 28.7577 23.8279 28.4036 23.8753 28.011C23.9131 27.6186 23.9416 26.9484 23.9416 26.0006V24.3923C23.9416 23.4253 23.9131 22.7456 23.8753 22.3627V22.363ZM21.5228 27.2359C21.5228 27.7911 21.5038 28.1357 21.4563 28.2891C21.4091 28.4327 21.3046 28.4994 21.1433 28.4994C20.982 28.4994 20.8777 28.4421 20.8303 28.3081C20.7924 28.1838 20.764 27.8488 20.764 27.303V22.9182C20.764 22.4298 20.802 22.1427 20.8683 22.0374C20.9347 21.9418 21.0296 21.8939 21.1529 21.8939C21.3046 21.8939 21.3995 21.9512 21.4563 22.0757C21.5038 22.2001 21.5228 22.4777 21.5228 22.9182V27.2359Z" fill="white"/>
<path fill-rule="evenodd" clip-rule="evenodd" d="M65.0147 24.6037H62.5958V22.9666C62.5958 22.4878 62.5671 22.1911 62.5201 22.0762C62.4725 21.9613 62.349 21.9037 62.1783 21.9037C61.9791 21.9037 61.8558 21.9707 61.7994 22.1143C61.7421 22.2582 61.7229 22.5738 61.7229 23.0432V27.4084C61.7229 27.8681 61.7421 28.1647 61.7994 28.2988C61.8558 28.4423 61.9699 28.5095 62.1598 28.5095C62.3396 28.5095 62.4538 28.4423 62.5103 28.2988C62.5671 28.1647 62.5958 27.8296 62.5958 27.3225V26.1352H65.0147V26.5085C65.0147 27.4755 64.9483 28.1647 64.8058 28.5765C64.6727 28.9783 64.3696 29.3328 63.9049 29.6391C63.4402 29.9455 62.8706 30.0987 62.1877 30.0987C61.4861 30.0987 60.8977 29.9742 60.4424 29.7157C59.978 29.4575 59.6746 29.0936 59.5317 28.634C59.3806 28.1746 59.304 27.4851 59.304 26.5664V23.8187C59.304 23.1486 59.3234 22.6412 59.3704 22.2967C59.4182 21.9615 59.5509 21.6361 59.7787 21.3201C60.0063 21.0043 60.3289 20.7649 60.7274 20.583C61.1349 20.4012 61.5996 20.3149 62.1212 20.3149C62.8329 20.3149 63.421 20.4491 63.8857 20.7266C64.341 21.0043 64.6448 21.3489 64.7964 21.7702C64.9391 22.1818 65.0147 22.8328 65.0147 23.7038V24.6041V24.6037ZM71.2749 29.9072H69.255V25.6279L67.9933 29.9072H65.8778V20.506H67.8982V24.7473L69.255 20.506H70.2884L71.2749 22.4208V29.9072ZM83.0467 29.9072H81.0268V25.6279L79.7651 29.9072H77.6494V22.3631L78.6265 20.506H79.6701V24.7473L81.0268 20.506H83.0467V29.9072ZM70.858 20.506L71.8445 22.3825H73.267V23.0909H75.174C75.259 23.0909 75.3353 23.1581 75.3353 23.2537V23.7323C75.3353 23.8282 75.259 23.8951 75.174 23.8951H73.267V24.0579H75.174C75.259 24.0579 75.3353 24.1347 75.3353 24.2209V24.709C75.3353 24.7952 75.259 24.872 75.174 24.872H73.267V25.025H75.174C75.259 25.025 75.3353 25.1017 75.3353 25.188V25.6762C75.3353 25.7624 75.259 25.8392 75.174 25.8392H73.267V29.898H75.6859V22.3831H77.1182L78.0955 20.5066H70.858V20.506Z" fill="white"/>
<path fill-rule="evenodd" clip-rule="evenodd" d="M30.3637 20.5059L29.1306 29.8973H31.6348L31.7771 28.2124H32.6401L32.7728 29.8973H35.2392L33.8542 20.5059H30.3637ZM31.7485 26.537C31.8055 25.7138 31.9668 24.3927 32.2134 22.5927C32.3367 24.1627 32.4504 25.4746 32.5739 26.5467L31.7485 26.537ZM29.472 22.3728H27.2618V29.8973H24.843V20.4961H29.747L29.472 22.3728ZM59.8829 20.5059L58.9058 22.3822H57.4641V29.8973H55.0544V25.8381H56.8953C56.9802 25.8381 57.0564 25.7617 57.0564 25.6755V25.1871C57.0564 25.1008 56.9802 25.0242 56.8953 25.0242H55.0544V24.8711H56.8953C56.9802 24.8711 57.0564 24.7945 57.0564 24.7083V24.2198C57.0564 24.1336 56.9802 24.0572 56.8953 24.0572H55.0544V23.8944H56.8953C56.9802 23.8944 57.0564 23.8275 57.0564 23.7316V23.253C57.0564 23.1572 56.9802 23.09 56.8953 23.09H55.0544V22.3816H53.6227L52.6456 20.5053H59.8829V20.5059ZM40.3994 21.1088C40.2191 20.9175 39.9537 20.7642 39.6026 20.6591C39.2424 20.5534 38.7396 20.5057 38.0849 20.5057H35.6471V29.8971H38.0659V27.1018H38.711C39.2424 27.1018 39.6691 27.0347 39.9917 26.8815C40.3234 26.7378 40.5513 26.5272 40.665 26.2497C40.7885 25.972 40.8547 25.5411 40.8547 24.938V23.1289C40.8547 22.5446 40.8167 22.1043 40.7601 21.8268C40.6934 21.5491 40.5701 21.3097 40.3994 21.1086V21.1088ZM38.8343 24.6415C38.8343 24.9861 38.7868 25.2159 38.7016 25.3306C38.6163 25.4359 38.4642 25.4936 38.2462 25.4936C38.1892 25.4936 38.1322 25.4936 38.0659 25.4936V22.1045C38.3789 22.1045 38.5877 22.1621 38.6826 22.2577C38.7868 22.3537 38.8343 22.5546 38.8343 22.8801V24.6417V24.6415ZM52.086 20.5057L53.0723 22.3726V29.8971H50.6535V25.953H49.9326V29.8971H47.5136V20.5057H49.9326V23.8659H50.6535V20.5057H52.086ZM42.2302 20.5057L40.9971 29.8971H43.4917L43.6436 28.2122H44.5066L44.6397 29.8971H47.1055L45.7211 20.5057H42.2302ZM43.615 26.5368C43.672 25.7136 43.8333 24.3925 44.0703 22.5926C44.1936 24.1625 44.3171 25.4744 44.4404 26.5465L43.615 26.5368Z" fill="#C5C5C5"/>
<path fill-rule="evenodd" clip-rule="evenodd" d="M78.3606 31.9561L76.9189 34.9237L73.6843 35.3925L76.0274 37.6999L75.4674 40.9643L78.3606 39.423L81.2537 40.9643L80.7039 37.6999L83.0464 35.3925L79.8118 34.9237L78.3606 31.9561Z" fill="white"/>
<path fill-rule="evenodd" clip-rule="evenodd" d="M64.6166 31.9561L63.1747 34.9237L59.9399 35.3925L62.2825 37.6999L61.7229 40.9643L64.6166 39.423L67.5091 40.9643L66.9589 37.6999L69.3022 35.3925L66.0674 34.9237L64.6166 31.9561Z" fill="white"/>
<path fill-rule="evenodd" clip-rule="evenodd" d="M18.4209 31.9561L16.979 34.9237L13.7446 35.3925L16.0875 37.6999L15.5279 40.9643L18.4209 39.423L21.314 40.9643L20.764 37.6999L23.1069 35.3925L19.8723 34.9237L18.4209 31.9561Z" fill="white"/>
<path fill-rule="evenodd" clip-rule="evenodd" d="M4.68603 31.9561L3.23457 34.9237L0 35.3925L2.34292 37.6999L1.79272 40.9643L4.68603 39.423L7.57896 40.9643L7.01954 37.6999L9.36245 35.3925L6.12769 34.9237L4.68603 31.9561Z" fill="white"/>
<path fill-rule="evenodd" clip-rule="evenodd" d="M28.7795 19.6639L26.4744 17.395L37.3545 15.806L42.3914 6.69197L47.4279 15.806L58.3175 17.395L56.003 19.6639H60.2911L64.8155 15.2314L49.3251 12.9721L42.3914 0L35.467 12.9721L19.9768 15.2314L24.4919 19.6639H28.7795Z" fill="white"/>
<path d="M86.8526 19.2861C86.8526 19.507 86.819 19.7275 86.7353 19.9145C86.6515 20.1012 86.5511 20.2708 86.3998 20.4068C86.2657 20.5596 86.0983 20.6613 85.8966 20.7464C85.7123 20.8311 85.5114 20.8651 85.293 20.8651C85.0753 20.8651 84.8575 20.8311 84.6725 20.7464C84.4715 20.6783 84.3209 20.5596 84.1867 20.4238C84.0353 20.2878 83.9349 20.118 83.8512 19.9312C83.7841 19.7447 83.7507 19.5239 83.7507 19.303C83.7507 19.0821 83.7841 18.8788 83.8679 18.692C83.9516 18.4881 84.0522 18.3353 84.2034 18.1825C84.3374 18.0468 84.5049 17.9282 84.69 17.8601C84.8744 17.775 85.0918 17.7412 85.3105 17.7412C85.5279 17.7412 85.7459 17.775 85.9306 17.8429C86.115 17.928 86.2824 18.0298 86.4165 18.1825C86.5511 18.3183 86.6682 18.4711 86.7353 18.6748C86.819 18.8618 86.8526 19.0653 86.8526 19.2861ZM86.5002 19.32C86.5002 19.1333 86.4666 18.9465 86.3998 18.7937C86.3495 18.6409 86.2657 18.5051 86.1655 18.4034C86.0481 18.2845 85.9308 18.1996 85.7795 18.1487C85.6287 18.0808 85.478 18.047 85.3105 18.047C85.1256 18.047 84.9581 18.081 84.8072 18.1487C84.6725 18.2168 84.5385 18.3015 84.4383 18.4203C84.3211 18.5222 84.237 18.6579 84.1869 18.8107C84.1367 18.9635 84.1031 19.1163 84.1031 19.2861C84.1031 19.4728 84.1367 19.6426 84.1869 19.7954C84.2541 19.9482 84.3376 20.0842 84.4383 20.2029C84.5385 20.3046 84.6725 20.3897 84.8241 20.4574C84.9581 20.5255 85.1256 20.5423 85.2932 20.5423C85.4782 20.5423 85.6454 20.5083 85.7962 20.4406C85.9308 20.3895 86.0648 20.2876 86.1655 20.1859C86.2826 20.0673 86.3495 19.9482 86.4167 19.7954C86.4668 19.6426 86.5004 19.4898 86.5004 19.32H86.5002ZM86.0312 20.0501C86.0312 20.0673 86.0312 20.0842 86.0145 20.0842C86.0145 20.1012 86.0145 20.1012 85.9976 20.1012C85.9811 20.1012 85.9475 20.118 85.9306 20.118C85.8966 20.118 85.8632 20.118 85.8129 20.118C85.7626 20.118 85.7292 20.118 85.6957 20.118C85.6621 20.118 85.6454 20.1012 85.6285 20.1012C85.612 20.1012 85.5951 20.0842 85.5951 20.0673C85.5784 20.0673 85.5784 20.0501 85.5617 20.0161L85.478 19.7447C85.4444 19.6426 85.4108 19.5749 85.3773 19.5407C85.327 19.5068 85.2596 19.4896 85.1755 19.4896H85.0584V20.0499C85.0584 20.0671 85.0584 20.0841 85.0251 20.101C85.0082 20.1178 84.9581 20.1178 84.8744 20.1178C84.7903 20.1178 84.7403 20.1178 84.7065 20.101C84.69 20.0841 84.6725 20.0671 84.6725 20.0329V18.5899C84.6725 18.5388 84.69 18.4879 84.7234 18.4539C84.7401 18.42 84.7903 18.403 84.8406 18.403H85.3103C85.4106 18.403 85.5112 18.42 85.5782 18.4368C85.6619 18.4539 85.729 18.4879 85.7958 18.5218C85.8461 18.5728 85.8964 18.6235 85.9129 18.6745C85.9473 18.7426 85.9638 18.8103 85.9638 18.8954C85.9638 19.0312 85.9304 19.1161 85.8628 19.201C85.7956 19.2691 85.6954 19.3196 85.578 19.3538C85.645 19.3708 85.7119 19.4047 85.7622 19.4555C85.8125 19.5066 85.8628 19.5745 85.8962 19.6764L85.9972 19.9309C86.0141 19.999 86.0309 20.0327 86.0309 20.0497L86.0312 20.0501ZM85.5279 18.9465C85.5279 18.9125 85.5279 18.8786 85.5279 18.8618C85.5114 18.8276 85.4945 18.8107 85.4778 18.7937C85.4611 18.7595 85.4275 18.7428 85.394 18.7428C85.3437 18.7258 85.3103 18.7258 85.2425 18.7258H85.0582V19.1842H85.2425C85.3604 19.1842 85.4275 19.15 85.4778 19.1161C85.5112 19.0652 85.5279 19.0144 85.5279 18.9463V18.9465Z" fill="white"/>
<path fill-rule="evenodd" clip-rule="evenodd" d="M96.6445 8.50732H97.4891V40.9088H96.6445V8.50732Z" fill="white"/>
<path d="M206.143 27.9179H205.154V20.705L203.808 21.5321V20.5137L204.984 19.7373H206.143V27.9179Z" fill="white"/>
<path d="M199.888 23.9737H202.786V24.9358H199.888V23.9737ZM192.764 19.7371H193.702L198.121 26.5843L197.883 26.5449V19.7371H198.866V27.9121H197.917L193.457 21.0818L193.747 21.1718V27.9121H192.764V19.7371ZM201.331 23.2817C200.869 23.2817 200.511 23.1541 200.258 22.8991C200.008 22.6403 199.883 22.2802 199.883 21.8188V21.1606C199.883 20.6955 200.008 20.3354 200.258 20.0803C200.511 19.8253 200.869 19.6978 201.331 19.6978C201.793 19.6978 202.149 19.8272 202.399 20.086C202.653 20.341 202.78 20.7011 202.78 21.1662V21.8188C202.78 22.2802 202.653 22.6403 202.399 22.8991C202.149 23.1541 201.793 23.2817 201.331 23.2817ZM201.331 22.4996C201.524 22.4996 201.674 22.4377 201.78 22.314C201.886 22.1902 201.939 22.0158 201.939 21.7907V21.1718C201.939 20.9505 201.886 20.7799 201.78 20.6598C201.674 20.5398 201.524 20.4798 201.331 20.4798C201.134 20.4798 200.983 20.5417 200.877 20.6655C200.775 20.7855 200.723 20.958 200.723 21.1831V21.7907C200.723 22.0158 200.775 22.1902 200.877 22.314C200.983 22.4377 201.134 22.4996 201.331 22.4996Z" fill="white"/>
<path d="M184.123 23.822H186.765C187.053 23.822 187.305 23.7563 187.52 23.625C187.74 23.4938 187.909 23.31 188.026 23.0737C188.147 22.8336 188.208 22.5579 188.208 22.2466C188.208 21.9315 188.147 21.654 188.026 21.4139C187.909 21.1739 187.74 20.9882 187.52 20.8569C187.305 20.7256 187.053 20.66 186.765 20.66H184.123V19.7373H186.725C187.217 19.7373 187.651 19.8423 188.026 20.0524C188.401 20.2587 188.691 20.5512 188.895 20.9301C189.104 21.3089 189.208 21.7478 189.208 22.2466C189.208 22.7417 189.104 23.1787 188.895 23.5575C188.691 23.9326 188.401 24.2252 188.026 24.4352C187.651 24.6415 187.217 24.7447 186.725 24.7447H184.123V23.822ZM183.527 19.7373H184.515V27.9179H183.527V19.7373Z" fill="white"/>
<path d="M179.209 20.238H180.198V27.9179H179.209V20.238ZM176.789 19.7373H182.618V20.66H176.789V19.7373Z" fill="white"/>
<path d="M174.891 19.7373H175.88V27.9179H174.891V19.7373ZM170.028 19.7373H171.017V27.9179H170.028V19.7373ZM170.665 23.4112H175.42V24.3508H170.665V23.4112Z" fill="white"/>
<path d="M163.075 19.7373H164.063V27.9179H163.075V19.7373ZM163.637 26.9952H168.381V27.9179H163.637V26.9952ZM163.637 23.3944H167.756V24.3171H163.637V23.3944ZM163.637 19.7373H168.381V20.66H163.637V19.7373Z" fill="white"/>
<path d="M159.552 19.7373H160.541V27.9179H159.552V19.7373ZM155.24 26.9952H160.99V27.9179H155.24V26.9952ZM160.552 26.9952H161.541V29.6114H160.552V26.9952ZM154.689 19.7373H155.678V27.9179H154.689V19.7373Z" fill="white"/>
<path d="M149.912 28.0022C149.317 28.0022 148.802 27.8803 148.367 27.6365C147.931 27.3927 147.596 27.0457 147.361 26.5956C147.126 26.1418 147.009 25.6054 147.009 24.9865V22.6685C147.009 22.0496 147.126 21.5132 147.361 21.0594C147.596 20.6055 147.931 20.2586 148.367 20.0185C148.802 19.7747 149.317 19.6528 149.912 19.6528C150.506 19.6528 151.022 19.7747 151.457 20.0185C151.896 20.2586 152.232 20.6055 152.463 21.0594C152.697 21.5132 152.815 22.0496 152.815 22.6685V24.9865C152.815 25.6054 152.697 26.1418 152.463 26.5956C152.232 27.0457 151.896 27.3927 151.457 27.6365C151.022 27.8803 150.506 28.0022 149.912 28.0022ZM149.912 27.057C150.302 27.057 150.639 26.9763 150.923 26.815C151.211 26.65 151.431 26.4156 151.582 26.1118C151.737 25.8042 151.815 25.4422 151.815 25.0259V22.6291C151.815 22.209 151.737 21.8471 151.582 21.5433C151.431 21.2357 151.211 21.0013 150.923 20.84C150.639 20.6749 150.302 20.5924 149.912 20.5924C149.522 20.5924 149.183 20.6749 148.895 20.84C148.611 21.0013 148.393 21.2357 148.242 21.5433C148.09 21.8471 148.014 22.209 148.014 22.6291V25.0259C148.014 25.4422 148.09 25.8042 148.242 26.1118C148.393 26.4156 148.611 26.65 148.895 26.815C149.183 26.9763 149.522 27.057 149.912 27.057Z" fill="white"/>
<path d="M142.861 20.238H143.85V27.9179H142.861V20.238ZM140.441 19.7373H146.27V20.66H140.441V19.7373Z" fill="white"/>
<path d="M134.749 27.0064H137.004C137.648 27.0064 138.116 26.8864 138.407 26.6463C138.703 26.4063 138.851 26.0668 138.851 25.628V25.6111C138.851 25.311 138.796 25.0541 138.686 24.8403C138.58 24.6228 138.411 24.4559 138.18 24.3396C137.949 24.2233 137.652 24.1652 137.288 24.1652H134.749V23.2706H137.288C137.769 23.2706 138.131 23.1618 138.373 22.9443C138.62 22.7267 138.743 22.4041 138.743 21.9766C138.743 21.5302 138.608 21.1964 138.339 20.9751C138.07 20.7538 137.667 20.6431 137.129 20.6431H134.749V19.7373H137.322C137.856 19.7373 138.303 19.8273 138.663 20.0074C139.023 20.1874 139.292 20.4425 139.47 20.7725C139.648 21.1026 139.737 21.4964 139.737 21.954C139.737 22.2316 139.682 22.4942 139.572 22.7417C139.462 22.9855 139.294 23.1956 139.067 23.3719C138.843 23.5481 138.565 23.6663 138.231 23.7263C138.565 23.7751 138.853 23.8932 139.095 24.0808C139.337 24.2646 139.523 24.4952 139.652 24.7728C139.78 25.0504 139.845 25.3504 139.845 25.673V25.6899C139.845 26.1325 139.746 26.5226 139.549 26.8601C139.352 27.1977 139.07 27.4584 138.703 27.6422C138.336 27.826 137.908 27.9179 137.419 27.9179H134.749V27.0064ZM134.067 19.7373H135.056V27.9179H134.067V19.7373Z" fill="white"/>
<path d="M128.784 19.7373H129.772L132.817 27.9179H131.738L129.278 20.9526L126.818 27.9179H125.739L128.784 19.7373ZM127.142 25.1047H131.488V26.0274H127.142V25.1047Z" fill="white"/>
<path fill-rule="evenodd" clip-rule="evenodd" d="M219.316 9.48774H112.224V38.7977H219.316V9.48774ZM111.54 8.81006V39.4753H220V8.81006H111.54Z" fill="white"/>
</g>
<defs>
<clipPath id="clip0_711_2421">
<rect width="220" height="41" fill="white"/>
</clipPath>
</defs>
</svg>
