<svg width="24" height="24" viewBox="0 0 24 24" fill="none" xmlns="http://www.w3.org/2000/svg">
<g clip-path="url(#clip0_1669_881)">
<path d="M21.7198 11.9998C21.7198 17.368 17.368 21.7198 11.9998 21.7198C9.95227 21.7198 8.05257 21.0867 6.48584 20.0056L3.16342 20.8362L4.03405 17.5713C2.92853 15.9937 2.27979 14.0725 2.27979 11.9998C2.27979 6.63158 6.63158 2.27979 11.9998 2.27979C17.368 2.27979 21.7198 6.63158 21.7198 11.9998Z" fill="url(#paint0_linear_1669_881)"/>
<path fill-rule="evenodd" clip-rule="evenodd" d="M12.0002 23.3402C18.2631 23.3402 23.3402 18.2631 23.3402 12.0002C23.3402 5.73724 18.2631 0.660156 12.0002 0.660156C5.73724 0.660156 0.660156 5.73724 0.660156 12.0002C0.660156 14.034 1.19557 15.9428 2.13312 17.5932L0.660156 23.3402L6.58519 21.9662C8.19429 22.8423 10.0391 23.3402 12.0002 23.3402ZM12.0002 21.5956C17.2996 21.5956 21.5956 17.2996 21.5956 12.0002C21.5956 6.70077 17.2996 2.40477 12.0002 2.40477C6.70077 2.40477 2.40477 6.70077 2.40477 12.0002C2.40477 14.0463 3.0452 15.9428 4.13655 17.5002L3.27708 20.7232L6.5569 19.9032C8.10357 20.9706 9.97888 21.5956 12.0002 21.5956Z" fill="white"/>
<path d="M9.16502 6.73493C8.89545 6.19338 8.48178 6.24132 8.06399 6.24132C7.31725 6.24132 6.15283 7.13579 6.15283 8.80051C6.15283 10.1648 6.75401 11.6582 8.77978 13.8923C10.7348 16.0483 13.3036 17.1636 15.4362 17.1256C17.5688 17.0877 18.0075 15.2525 18.0075 14.6328C18.0075 14.3581 17.837 14.221 17.7197 14.1838C16.9929 13.835 15.6526 13.1851 15.3476 13.0631C15.0426 12.941 14.8834 13.1061 14.7844 13.196C14.5079 13.4595 13.9597 14.2363 13.7719 14.411C13.5842 14.5857 13.3044 14.4972 13.1879 14.4312C12.7593 14.2593 11.5974 13.7424 10.6712 12.8445C9.52571 11.7342 9.45848 11.3521 9.2427 11.0121C9.07009 10.74 9.19677 10.5731 9.25995 10.5001C9.50676 10.2154 9.84753 9.77575 10.0004 9.5573C10.1531 9.33876 10.0319 9.00706 9.95906 8.80051C9.646 7.91194 9.38072 7.16812 9.16502 6.73493Z" fill="white"/>
</g>
<defs>
<linearGradient id="paint0_linear_1669_881" x1="20.5048" y1="4.70978" x2="2.27978" y2="21.7198" gradientUnits="userSpaceOnUse">
<stop stop-color="#5BD066"/>
<stop offset="1" stop-color="#27B43E"/>
</linearGradient>
<clipPath id="clip0_1669_881">
<rect width="24" height="24" fill="white"/>
</clipPath>
</defs>
</svg>
