<svg width="52" height="52" viewBox="0 0 52 52" fill="none" xmlns="http://www.w3.org/2000/svg">
<path d="M25.9998 0.166992C11.7398 0.166992 0.166504 11.7403 0.166504 26.0003C0.166504 40.2603 11.7398 51.8337 25.9998 51.8337C40.2598 51.8337 51.8332 40.2603 51.8332 26.0003C51.8332 11.7403 40.2598 0.166992 25.9998 0.166992ZM20.8332 37.6253V14.3753L36.3332 26.0003L20.8332 37.6253Z" fill="#C4C4C4"/>
</svg>
