<svg width="22" height="22" viewBox="0 0 22 22" fill="none" xmlns="http://www.w3.org/2000/svg">
<path d="M4.36977 4.86684C4.29385 4.71499 4.31013 4.53606 4.41317 4.40591L7.26552 0.664233C7.34686 0.55578 7.47701 0.490723 7.61258 0.490723C7.74814 0.490723 7.8783 0.55578 7.96505 0.664233L10.8174 4.40591C10.9204 4.53606 10.9313 4.72044 10.8608 4.86684C10.7849 5.01869 10.6331 5.11086 10.4649 5.11086H9.73287V8.94474C7.8783 9.86118 6.38161 11.385 5.4977 13.2558V5.11086H4.76564C4.59755 5.11086 4.4457 5.01323 4.36977 4.86684Z" fill="white"/>
<path d="M18.4363 11.3472L14.6946 14.1996C14.5644 14.3026 14.3801 14.3188 14.2337 14.243C14.0818 14.167 13.9896 14.0152 13.9896 13.8471V13.115H13.4636C11.403 13.115 9.73278 14.7906 9.73278 16.8459V21.0702C9.73303 21.1279 9.72183 21.1851 9.69984 21.2385C9.67786 21.2919 9.64551 21.3405 9.60468 21.3813C9.56384 21.4221 9.51533 21.4545 9.46193 21.4765C9.40853 21.4984 9.3513 21.5096 9.29356 21.5094H5.93688C5.87913 21.5096 5.82191 21.4984 5.76851 21.4765C5.71511 21.4545 5.66659 21.4221 5.62576 21.3813C5.58493 21.3405 5.55258 21.2919 5.53059 21.2385C5.50861 21.1851 5.49741 21.1279 5.49765 21.0702V17.1658C5.49765 12.5999 9.21222 8.88531 13.7782 8.88531H13.9951V8.15325C13.9951 7.98515 14.0872 7.83331 14.2391 7.75738C14.3909 7.68687 14.5699 7.69774 14.7 7.80078L18.4417 10.6531C18.5502 10.7344 18.6152 10.8646 18.6152 11.0056C18.6098 11.1411 18.5502 11.2659 18.4363 11.3472Z" fill="white"/>
</svg>
